{
  "project_info": {
    "project_number": "791468166938",
    "firebase_url": "https://futbolcamp-f99ea.firebaseio.com",
    "project_id": "futbolcamp-f99ea",
    "storage_bucket": "futbolcamp-f99ea.appspot.com"
  },
  "client": [
    {
      "client_info": {
        "mobilesdk_app_id": "1:791468166938:android:f1ecfeeb4a276511",
        "android_client_info": {
          "package_name": "com.futbolcamp"
        }
      },
      "oauth_client": [
        {
          "client_id": "791468166938-2ir9pc8rnbab3r2rvmcd2rqnvodi49ei.apps.googleusercontent.com",
          "client_type": 1,
          "android_info": {
            "package_name": "com.futbolcamp",
            "certificate_hash": "dd44285d91018e4d4bf994f5acd50230040b30c8"
          }
        }
      ],
      "api_key": [
        {
          "current_key": "AIzaSyCoYZtEItv-8xfGXAFMNVPXS4K4NSq5q6o"
        }
      ],
      "services": {
        "appinvite_service": {
          "other_platform_oauth_client": [
            {
              "client_id": "791468166938-iqpih7e4v3pn9ck0eea0u81v7iqbm55d.apps.googleusercontent.com",
              "client_type": 3
            }
          ]
        }
      }
    }
  ],
  "configuration_version": "1"
}